a3_task3_caitlin_manley
…
Caitlin Manley

11/2/2020

urchins_data <- read_csv(here("data" , "urchins.csv")) %>% 
  clean_names()

Section 1. Size Comparisons of Purple and Red Sea Urchins

1.1) Here I compared the distribution of sizes between purple and red sea urchins using a faceted histogram and a boxplot

urchins_data %>% 
 group_by(common_name)

## # A tibble: 59,213 x 6
## # Groups:   common_name [2]
##    date     site  treatment  size scientific_name               common_name  
##    <chr>    <chr> <chr>     <dbl> <chr>                         <chr>        
##  1 10/10/08 NAPL  CONTROL     2.5 Strongylocentrotus purpuratus Purple Urchin
##  2 10/10/08 NAPL  CONTROL     2.5 Strongylocentrotus purpuratus Purple Urchin
##  3 10/10/08 NAPL  CONTROL     2.5 Strongylocentrotus purpuratus Purple Urchin
##  4 10/10/08 NAPL  CONTROL     2.5 Strongylocentrotus purpuratus Purple Urchin
##  5 10/10/08 NAPL  CONTROL     2.5 Strongylocentrotus purpuratus Purple Urchin
##  6 10/10/08 NAPL  CONTROL     2.5 Strongylocentrotus purpuratus Purple Urchin
##  7 10/10/08 NAPL  CONTROL     2.5 Strongylocentrotus purpuratus Purple Urchin
##  8 10/10/08 NAPL  CONTROL     2.5 Strongylocentrotus purpuratus Purple Urchin
##  9 10/10/08 NAPL  CONTROL     2.5 Strongylocentrotus purpuratus Purple Urchin
## 10 10/10/08 NAPL  CONTROL     2.5 Strongylocentrotus purpuratus Purple Urchin
## #  with 59,203 more rows
…
